0.634921
2.51451
2.59048
2.67392
3.24
3.58388
3.88571
4.30948
4.67519
5.02265
6.55435
7.30327
8.90444
10.7237
11.2196
11.6847
13.4045
13.5392
13.678
14.0171
14.2824
14.6424
14.9079
15.294
15.619
15.9601
16.442
19.1542
