1.129070294
2.510657596
2.702222222
2.879274376
3.801814058
4.001088435
4.206439909
5.291247165
6.548548752
6.699569160
6.855804988
7.854013605
7.983673469
8.202448979
9.300702947
10.025215419
10.671428571
11.010204081
11.906122448
12.253061224
